INDEX VERSION 1.130+C:\Workspace_Jenkins\DevCode\.metadata\.plugins\org.eclipse.jdt.core
1477788888.index
648612256.index
1484906476.index
148409970.index
194259052.index
3666609613.index
2272273464.index
3620471903.index
1629886850.index
559129880.index
922380862.index
3698447926.index
2709225165.index
2470519452.index
1689259093.index
3141958188.index
848469205.index
4265864773.index
628019425.index
